"Characters": [
   {
    "id": 1,
    "name": "Goku",
    "ki": "60.000.000",
    "maxKi": "90 Septillion",
    "race": "Saiyan",
    "gender": "Male",
    "description": "El protagonista de la serie, conocido por su gran poder y personalidad amigable. Originalmente enviado a la Tierra como un infante volador con la misión de conquistarla. Sin embargo, el caer por un barranco le proporcionó un brutal golpe que si bien casi lo mata, este alteró su memoria y anuló todos los instintos violentos de su especie, lo que lo hizo crecer con un corazón puro y bondadoso, pero conservando todos los poderes de su raza. No obstante, en la nueva continuidad de Dragon Ball se establece que él fue enviado por sus padres a la Tierra con el objetivo de sobrevivir a toda costa a la destrucción de su planeta por parte de Freeza. Más tarde, Kakarot, ahora conocido como Son Goku, se convertiría en el príncipe consorte del monte Fry-pan y líder de los Guerreros Z, así como el mayor defensor de la Tierra y del Universo 7, logrando mantenerlos a salvo de la destrucción en innumerables ocasiones, a pesar de no considerarse a sí mismo como un héroe o salvador.",
    "image": "https://dragonball-api.com/characters/goku_normal.webp",
    "affiliation": "Z Fighter",
    "deletedAt": null
    },
    {
        "id": 2,
        "name": "Vegeta",
        "ki": "54.000.000",
        "maxKi": "19.84 Septillion",
        "race": "Saiyan",
        "gender": "Male",
        "description": "Príncipe de los Saiyans, inicialmente un villano, pero luego se une a los Z Fighters. A pesar de que a inicios de Dragon Ball Z, Vegeta cumple un papel antagónico, poco después decide rebelarse ante el Imperio de Freeza, volviéndose un aliado clave para los Guerreros Z. Con el paso del tiempo llegaría a cambiar su manera de ser, optando por permanecer y vivir en la Tierra para luchar a su lado contra las inminentes adversidades que superar. Junto con Piccolo, él es de los antiguos enemigos de Goku que ha evolucionando al pasar de ser un villano y antihéroe, a finalmente un héroe a lo largo del transcurso de la historia, convirtiéndose así en el deuteragonista de la serie.",
        "image": "https://dragonball-api.com/characters/vegeta_normal.webp",
        "affiliation": "Z Fighter",
        "deletedAt": null
    },
    {
        "id": 3,
        "name": "Piccolo",
        "ki": "2.000.000",
        "maxKi": "500.000.000",
        "race": "Namekian",
        "gender": "Male",
        "description": "Es un namekiano que surgió tras ser creado en los últimos momentos de vida de su padre, siendo su actual reencarnación. Aunque en un principio fue el archienemigo de Son Goku, con el paso del tiempo fue haciéndose menos malvado hasta finalmente convertirse en un ser bondadoso y miembro de los Guerreros Z. A través del tiempo, también comenzó a tomarle cariño a su discípulo Son Gohan, a quien veía como una especie de \"vástago\" y formando un lazo de amistad con este.",
        "image": "https://dragonball-api.com/characters/picolo_normal.webp",
        "affiliation": "Z Fighter",
        "deletedAt": null
    },
    {
        "id": 4,
        "name": "Bulma",
        "ki": "0",
        "maxKi": "0",
        "race": "Human",
        "gender": "Female",
        "description": "Bulma es la protagonista femenina de la serie manga Dragon Ball y sus adaptaciones al anime Dragon Ball, Dragon Ball Z, Dragon Ball Super y Dragon Ball GT. Es hija del Dr. Brief y su esposa Panchy, hermana menor de Tights y una gran amiga de Son Goku con quien inicia la búsqueda de las Esferas del Dragón. En Dragon Ball Z tuvo a Trunks, primogénito de quien sería su esposo Vegeta, a su hija Bra[3] y su hijo adulto del tiempo alterno Trunks del Futuro Alternativo.",
        "image": "https://dragonball-api.com/characters/bulma.webp",
        "affiliation": "Z Fighter",
        "deletedAt": null
    },
    {
        "id": 5,
        "name": "Freezer",
        "ki": "530.000",
        "maxKi": "52.71 Septillion",
        "race": "Frieza Race",
        "gender": "Male",
        "description": "Freezer es el tirano espacial y el principal antagonista de la saga de Freezer.",
        "image": "https://dragonball-api.com/characters/Freezer.webp",
        "affiliation": "Army of Frieza",
        "deletedAt": null
    },
    {
        "id": 6,
        "name": "Zarbon",
        "ki": "20.000",
        "maxKi": "30.000",
        "race": "Frieza Race",
        "gender": "Male",
        "description": "Zarbon es uno de los secuaces de Freezer y un luchador poderoso.",
        "image": "https://dragonball-api.com/characters/zarbon.webp",
        "affiliation": "Army of Frieza",
        "deletedAt": null
    },
    {
        "id": 7,
        "name": "Dodoria",
        "ki": "18.000",
        "maxKi": "20.000",
        "race": "Frieza Race",
        "gender": "Male",
        "description": "Dodoria es otro secuaz de Freezer conocido por su brutalidad.",
        "image": "https://dragonball-api.com/characters/dodoria.webp",
        "affiliation": "Army of Frieza",
        "deletedAt": null
    },
    {
        "id": 8,
        "name": "Ginyu",
        "ki": "9.000",
        "maxKi": "25.000",
        "race": "Frieza Race",
        "gender": "male" ,
        "image": "https://dragonball-api.com/characters/ginyu.webp",
        "affiliation": "Army of Frieza",
        "deletedAt": null
    },
    {
        "id": 9,
        "name": "Celula",
        "ki": "250.000.000",
        "maxKi": "5 Billion",
        "race": "Android",
        "gender": "Male",
        "image": "https://dragonball-api.com/characters/celula.webp",
        "affiliation": "Freelancer",
        "deletedAt": null
    },
    {
        "id": 10,
        "name": "Gohan",
        "ki": "45.000.000",
        "maxKi": "40 septillion",
        "race": "Saiyan",
        "gender": "Male",
        "image": "https://dragonball-api.com/characters/gohan.webp",
        "affiliation": "Z Fighter",
        "deletedAt": null
    }
    {
        "id": 11,
        "name": "Krillin",
        "ki": "1.000.000",
        "maxKi": "1 Billion",
        "race": "Human",
        "gender": "Male",
        "image": "https://dragonball-api.com/characters/Krilin_Universo7.webp",
        "affiliation": "Z Fighter",
        "deletedAt": null
        },
        {
            "id": 12,
            "name": "Tenshinhan",
            "ki": "2.400.000",
            "maxKi": "80.000.000",
            "race": "Human",
            "gender": "Male",
            "image": "image":"https://dragonball-api.com/characters/Tenshinhan_Universo7.webp",
            "affiliation": "Z Fighter",
            "deletedAt": null
        },
        {
            "id": 13,
            "name": "Yamcha",
            "ki": "1.980.000",
            "maxKi": "4.000.000",
            "race": "Human",
            "gender": "Male",
            "image": "https://dragonball-api.com/characters/Final_Yamcha.webp",
            "affiliation": "Z Fighter",
            "deletedAt": null
        },
        {
            "id": 14,
            "name": "Chi-Chi",
            "ki": "0",
            "maxKi": "0",
            "race": "Human",
            "gender": "female",
            "image": "https://dragonball-api.com/characters/ChiChi_DBS.webp",
            "affiliation": "Z Fighter",
            "deletedAt": null
        },
        {
            "id": 15,
            "name": "Gotenks",
            "ki": "65.000.000",
            "maxKi": "34.8billion",
            "race": "Saiyan",
            "gender": "Male",
            "image": "https://dragonball-api.com/characters/Gotenks_Artwork.webp",
            "affiliation": "Z Fighter",
            "deletedAt": null
        }, 
        {
            "id": 16,
            "name": "Trunks",
            "ki": "50,000,000",
            "maxKi": "37.4 septllion",
            "race": "Saiyan",
            "gender": "Male",
            "image": "https://dragonball-api.com/characters/Trunks_Buu_Artwork.webp",
            "affiliation": "Z Fighter",
            "deletedAt": null,
        },
        {
            "id": 17,
            "name": "Master Roshi",
            "ki": "500,000",
            "maxKi": "350,000,000",
            "race": "Human",
            "gender": "Male",
            "affiliation": "Z Fighter",
            "deletedAt": null,
        },
        {
            "id": 18,
            "name": "Bardock",
            "ki": "450.000",
            "maxKi": "180.000.000",
            "race": "Saiyan",
            "gender": "Male",
            "image": "https://dragonball-api.com/characters/Bardock_Artwork.webp",
            "affiliation": "Z Fighter",
            "deletedAt": null,
        },
        {
            "id": 18,
            "name": "Bardock",
            "ki": "450.000",
            "maxKi": "180.000.000",
            "race": "Saiyan",
            "gender": "Male",
            "image": "https://dragonball-api.com/characters/Bardock_Artwork.webp",
            "affiliation": "Z Fighter",
            "deletedAt": null,
        },
        {
         
       "id": 19,
       "name": "Launch",
       "ki": "0",
       "maxKi": "0",
       "race": "Human",
       "gender": "Female",
       "image": "https://dragonball-api.com/characters/Lunch_maid_outfit_in_the_manga.webp",
       "affiliation": "Z Fighter",
       "deletedAt": null,
    },
    {
        "id": 20,
        "name": "Mr. Satan",
        "ki": "450",
        "maxKi": "5,000",
        "race": "Human",
        "gender": "Male",
        "image": "https://dragonball-api.com/characters/Mr_Satan_DBSuper.webp",
        "affiliation": "Other",
        "deletedAt": null,
    },
    {
     "id": 21,
  "name": "From",
  "ki": "3.200",
  "maxKi": "3.200",
  "race": "Namekian",
  "gender": "Male",
  "image": "https://dragonball-api.com/characters/Dende_Artwork.webp",
  "affiliation": "Z Fighter",
  "deletedAt": null,             
    },
     {
"id": 22,
  "name": "Android 17",
  "ki": "320,000,000",
  "maxKi": "40 Quintillion",
  "race": "Android",
  "gender": "Male",
  "image": "https://dragonball-api.com/characters/17_Artwork.webp",
  "affiliation": "Villain",
  "deletedAt": null,
     },
     {
"id": 23,
  "name": "Android 16",
  "ki": "440,000,000",
  "maxKi": "440,000,000",
  "race": "Android",
  "gender": "Male",
  "image": "https://dragonball-api.com/characters/Androide_16.webp",
  "affiliation": "Villain",
  "deletedAt": null,

     },
     {
        "id": 24,
        "name": "Android 19",
        "ki": "122,000,000",
        "maxKi": "160,000,000",
        "race": "Android",
        "gender": "Male",
        "image": "https://dragonball-api.com/characters/Android19.webp",
        "affiliation": "Villain",
        "deletedAt": null,
      
     },
     {
     "id": 25,
  "name": "Android 20 (Dr. Gero)",
  "ki": "128,000,000",
  "maxKi": "158,100,000",
  "race": "Android",
  "gender": "Male",
  "image": "https://dragonball-api.com/characters/Dr._Gero android 20.webp",
  "affiliation": "Villain",
  "deletedAt": null,
     },
    {
        "id": 26,
        "name": "Android 13",
        "ki": "195,000,000",
        "maxKi": "562,500,000",
        "race": "Android",
        "gender": "Male",
        "image": "https://dragonball-api.com/characters/Androide13normal.webp",
        "affiliation": "Villain",
        "deletedAt": null,
    },
    {
        "id": 27,
        "name": "Android 14",
        "ki": "192,500,000",
        "maxKi": "192,500,000",
        "race": "Android",
        "gender": "Male",
        "image": "https://dragonball-api.com/characters/14Dokkan.webp",
        "affiliation": "Villain",
        "deletedAt": null,
    },
    {
"id": 28,
  "name": "Android 15",
  "ki": "175,000,000",
  "maxKi": "175,000,000",
  "race": "Android",
  "gender": "Male",
  "description": "Android 15 is another android that appears in the same movie as Android 13.",
  "image": "https://dragonball-api.com/characters/15Dokkan.webp",
  "affiliation": "Villan",
  "deletedAt": null,
    },
    {
        "id": 29,
        "name": "Nail",
        "ki": "42.000 ",
        "maxKi": "42.000",
        "race": "Namekian",
        "gender": "Male",
        "image": "https://dragonball-api.com/characters/Nail_Artwork.webp",
        "affiliation": "Z Fighter",
        "deletedAt": null,
    },
    {
     "id": 30,
  "name": "Raditz",
  "ki": "1,500 ",
  "maxKi": "1,500 ",
  "race": "Saiyan",
  "gender": "Male",
  "image": "https://dragonball-api.com/characters/Raditz_artwork_Dokkan.webp",
  "affiliation": "Army of Frieza",
  "deletedAt": null,
    },
    {
        "id": 31,
        "name": "Babidi",
        "ki": "0",
        "maxKi": "0",
        "race": "Majin",
        "gender": "Male",
        "image": "https://dragonball-api.com/characters/Babidi_Artwork.webp",
        "affiliation": "Villain",
        "deletedAt": null,
    },
    {
     "id": 32,
  "name": "Majin Buu",
  "ki": "8 Billion",
  "maxKi": "100 Trillion",
  "race": "Majin",
  "gender": "Male",
  "image": "https://dragonball-api.com/characters/BuuGordo_Universo7.webp",
  "affiliation": "Villain",
  "deletedAt": null,
    },
    {
        "id": 33,
        "name": "Bills",
        "ki": "102 Billion",
        "maxKi": "100 septillion",
        "race": "God",
        "gender": "Male",
        "image": "https://dragonball-api.com/characters/Beerus_DBS_Broly_Artwork.webp",
  "affiliation": "Other",
  "deletedAt": null,
    },
    {
     "id": 34,
  "name": "Whis",
  "ki": "15 septillion",
  "maxKi": "110 septillion",
  "race": "Angel",
  "gender": "Male",
  "image": "https://dragonball-api.com/characters/Whis_DBS_Broly_Artwork.webp",
  "affiliation": "Assistant of Beerus",
  "deletedAt": null,
    },
   {
    "id": 35,
  "name": "Zeno",
  "ki": "500 Septillion",
  "maxKi": "500 Septillion",
  "race": "Unknown",
  "gender": "Male",
  "image": "https://dragonball-api.com/characters/Zeno_Artwork.webp",
  "affiliation": "Other",
  "deletedAt": null,
   },
   {
   "id": 37,
  "name": "Kibito-Shin",
  "ki": "3.2 Billion",
  "maxKi": "3.2 Billion",
  "race": "God",
  "gender": "Male",
  "image": "https://dragonball-api.com/characters/Kibito_shin_Artwork.webp",
  "affiliation": "Other",
  "deletedAt": null,
   },
   {
   "id": 38,
  "name": "Jiren",
  "ki": "121 Quintillion",
  "maxKi": "12.1 Septillion",
  "race": "Jiren Race",
  "gender": "Male",
  "image": "https://dragonball-api.com/characters/Jiren.webp",
  "affiliation": "Pride Troopers",
  "deletedAt": null,
   },
   {
    "id": 39,
  "name": "Toppo",
  "ki": "99 Quadrillion",
  "maxKi": "7.5 Sextillion",
  "race": "God",
  "gender": "Male",
  "image": "https://dragonball-api.com/characters/Toppo.webp",
  "affiliation": "Pride Troopers",
  "deletedAt": null,
   },
   {
    "id": 40,
    "name": "Dyspo",
    "ki": "50 Trillion",
    "maxKi": "150 Quintillion",
    "race": "God",
    "gender": "Male",
    "image": "https://dragonball-api.com/characters/Dispo_render.webp",
  "affiliation": "Pride Troopers",
  "deletedAt": null,
   },
   {
  "id": 42,
  "name": "Marcarita ",
  "ki": "10 septillion",
  "maxKi": "99.5 septillion",
  "race": "Angel",
  "gender": "Female",
  "image": "https://dragonball-api.com/characters/Marcarita.webp",
  "affiliation": "Assistant of Vermoud",
  "deletedAt": null,
   },
   {
    "id": 43,
    "name": "Vermoudh",
    "ki": "9.9 Septillion",
    "maxKi": "100 septillion",
    "race": "God",
    "gender": "Male",
    "image": "https://dragonball-api.com/characters/Vermoud.webp",
    "affiliation": "Pride Troopers",
    "deletedAt": null,
   },
   {
   "id": 44,
  "name": "Grand Priest ",
  "ki": "969 Googolplex",
  "maxKi": "969 Googolplex",
  "race": "Angel",
  "gender": "Male",
  "image": "https://dragonball-api.com/characters/Grand priest.webp",
  "affiliation": "Other",
  "deletedAt": null,
   },
   {
    "id": 45,
  "name": "North Kaio (Kaito)",
  "ki": "6,000",
  "maxKi": "6,000",
  "race": "Benign Nucleic",
  "gender": "Male",
  "image": "https://dragonball-api.com/characters/Kaio_del_Norte.webp",
  "affiliation": "Other",
  "deletedAt": null,
   },
   {
    "id": 46,
    "name": "Android 18",
    "ki": "280,000,000",
    "maxKi": "300,000,000",
    "race": "Android",
    "gender": "Female",
    "image": "https://dragonball-api.com/characters/Androide_18_Artwork.webp",
  "affiliation": "Z Fighter",
  "deletedAt": null,
   },
{
"id": 47,
  "name": "Gogeta",
  "ki": "250 Billion",
  "maxKi": "15 septillion",
  "race": "Saiyan",
  "gender": "Male",
  "image": "https://dragonball-api.com/transformations/gogeta.webp",
  "affiliation": "Z Fighter",
  "deletedAt": null,
},
{
    "id": 48,
    "name": "Vegetto",
    "ki": "180 Billion",
    "maxKi": "10.8 Septillion",
    "race": "Saiyan",
    "gender": "Male",
    "image": "https://dragonball-api.com/transformations/Vegetto.webp",
    "affiliation": "Z Fighter",
    "deletedAt": null,
},
{
"id": 49,
"name":"Janemba",
"ki":"15 Billion",
"maxKi":"75 Billion",
"race":"Evil",
"gender":"Male",
"image":"https://dragonball-api.com/transformations/Janemba_artwork_SDBH.webp",
"affiliation":"Other",
"deletedAt":null,
},
{

    "id": 50,
    "name": "Broly",
    "ki": "7 quadrillion",
    "maxKi": "11.2 Septillion",
    "race": "Saiyan",
    "gender": "Male",
    "image": "https://dragonball-api.com/transformations/Broly_DBS_Base.webp",
    "affiliation": "Other",
    "deletedAt": null,
},
{
"id": 51,
  "name": "South Kaio",
  "ki": "unknown",
  "maxKi": "unknown",
  "race": "Benign Nuclear",
  "gender": "Male",
  "image": "https://dragonball-api.com/characters/South_Kaio_full_body.webp",
  "affiliation": "Other",
  "deletedAt": null,
},
{
"id": 52,
  "name": "East Kaio",
  "ki": "unknown",
  "maxKi": "unknown",
  "race": "Benign Nucleic",
  "gender": "Female",
  "image": "https://dragonball-api.com/characters/kaio del este.webp",
  "affiliation": "Other",
  "deletedAt": null,
},
{
    "id": 53,
    "name": "Kaio del Oeste",
    "ki": "unknown",
    "maxKi": "unknown",
    "race": "Nucleico benigno",
    "gender": "Male",
    "image": "https://dragonball-api.com/characters/Kaio del oeste.webp",
    "affiliation": "Other",
    "deletedAt": null,
},
{
"id": 54,
  "name": "Grand Kaio",
  "ki": "unknown",
  "maxKi": "unknown",
  "race": "Benign Nuclear",
  "gender": "Male",
  "image": "https://dragonball-api.com/characters/Gran_kaio_sama12.webp",
  "affiliation": "Other",
  "deletedAt": null,
},
{
"id": 55,
  "name": "Kaio-shin of the East",
  "ki": "unknown",
  "maxKi": "unknown",
  "race": "Nucleic",
  "gender": "Male",
  "image": "https://dragonball-api.com/characters/Kaio-shin_del_este_Artwork.webp",
  "affiliation": "Other",
  "deletedAt": null,
},
{
    "id": 56,
    "name": "Northern Kaiō-shin",
    "ki": "unknown",
    "maxKi": "unknown",
    "race": "Nucleic",
    "gender": "Male",
    "image": "https://dragonball-api.com/characters/Northern Kaio-shin.webp",
    "affiliation": "Other",
    "deletedAt": null,
},
{
"id": 57,
  "name": "South Kaio-shin",
  "ki": "unknown",
  "maxKi": "unknown",
  "race": "Nucleic",
  "gender": "Male",
  "image": "https://dragonball-api.com/characters/Kaio-shin_del_Sur_Dokkan.webp",
  "affiliation": "Other",
  "deletedAt": null,
},
{
"id": 58,
  "name": "Western Kaio-shin",
  "ki": "unknown",
  "maxKi": "unknown",
  "race": "Benign Nucleic",
  "gender": "Female",
  "image": "https://dragonball-api.com/characters/Kaio-shin_del_Oeste_Dokkan.webp",
  "affiliation": "Other",
  "deletedAt": null,
},
{
"id": 59,
  "name": "Great Kaio-shin",
  "ki": "unknown",
  "maxKi": "unknown",
  "race": "Benign Nucleus",
  "gender": "Male",
  "image": "https://dragonball-api.com/characters/Great_Kaio-shin_Artwork.webp",
  "affiliation": "Other",
  "deletedAt": null,
},
{
"id": 60,
  "name": "Kibito",
  "ki": "unknown",
  "maxKi": "unknown",
  "race": "Nucleic",
  "gender": "Male",
  "image": "https://dragonball-api.com/characters/Kibito_Artwork.webp",
  "affiliation": "Other",
  "deletedAt": null,
},

"meta": {
    "totalItems": 60,
    "itemCount": 10,
    "itemsPerPage": 10,
    "totalPages": 6,
    "currentPage": 1,
},
"links": {
    "first": "https://dragonball-api.com/api/characters?limit=10",
    "previous": "",
    "next": "https://dragonball-api.com/api/characters?page=2&limit=10",
    "last": "https://dragonball-api.com/api/characters?page=6&limit=10"
}
]